<?xml version="1.0" encoding="UTF-8" standalone="no"?>
<!-- Created with Inkscape (http://www.inkscape.org/) -->

<svg
   width="900mm"
   height="500mm"
   viewBox="0 0 900 500"
   version="1.1"
   id="svg1"
   sodipodi:docname="přelep nová url.svg"
   inkscape:version="1.3.2 (091e20ef0f, 2023-11-25)"
   inkscape:export-filename="../printdata/přelep nová url.pdf"
   inkscape:export-xdpi="96"
   inkscape:export-ydpi="96"
   xmlns:inkscape="http://www.inkscape.org/namespaces/inkscape"
   xmlns:sodipodi="http://sodipodi.sourceforge.net/DTD/sodipodi-0.dtd"
   xmlns="http://www.w3.org/2000/svg"
   xmlns:svg="http://www.w3.org/2000/svg">
  <sodipodi:namedview
     id="namedview1"
     pagecolor="#ffffff"
     bordercolor="#000000"
     borderopacity="0.25"
     inkscape:showpageshadow="2"
     inkscape:pageopacity="0.0"
     inkscape:pagecheckerboard="0"
     inkscape:deskcolor="#d1d1d1"
     inkscape:document-units="mm"
     inkscape:zoom="0.66250043"
     inkscape:cx="2841.5076"
     inkscape:cy="142.64142"
     inkscape:window-width="1920"
     inkscape:window-height="998"
     inkscape:window-x="0"
     inkscape:window-y="27"
     inkscape:window-maximized="1"
     inkscape:current-layer="layer1" />
  <defs
     id="defs1" />
  <g
     inkscape:label="Layer 1"
     inkscape:groupmode="layer"
     id="layer1"
     transform="translate(475.98547,46.831257)">
    <rect
       style="fill:#0b2a37;fill-opacity:1;stroke-width:1.40344;stroke-linecap:round;stroke-linejoin:round;paint-order:stroke markers fill"
       id="rect7"
       width="906"
       height="253"
       x="-478.98547"
       y="-49.831257"
       inkscape:export-filename="../../../../../../tmp/přelep.pdf"
       inkscape:export-xdpi="300"
       inkscape:export-ydpi="300" />
    <g
       id="g8"
       transform="translate(-1513.6682,-290.26218)">
      <text
         xml:space="preserve"
         style="font-style:normal;font-weight:normal;font-size:9.22208px;line-height:1.25;font-family:sans-serif;letter-spacing:0px;word-spacing:0px;fill:#000000;fill-opacity:1;stroke:none;stroke-width:0.230552"
         x="1668.7627"
         y="363.62598"
         id="text1087"><tspan
           sodipodi:role="line"
           id="tspan1091"
           x="1668.7627"
           y="363.62598"
           style="font-style:normal;font-variant:normal;font-weight:normal;font-stretch:normal;font-size:69.7104px;font-family:'Fira Code';-inkscape-font-specification:'Fira Code, Normal';font-variant-ligatures:normal;font-variant-caps:normal;font-variant-numeric:normal;font-variant-east-asian:normal;text-align:end;text-anchor:end;fill:#ffffff;fill-opacity:1;stroke-width:0.230552">patekvpatek.cz</tspan></text>
      <text
         xml:space="preserve"
         style="font-style:normal;font-weight:normal;font-size:6.90134px;line-height:1.25;font-family:sans-serif;letter-spacing:0px;word-spacing:0px;fill:#000000;fill-opacity:1;stroke:none;stroke-width:0.172535"
         x="1663.1158"
         y="450.23108"
         id="text2089"><tspan
           sodipodi:role="line"
           id="tspan2087"
           x="1663.1158"
           y="450.23108"
           style="font-style:normal;font-variant:normal;font-weight:normal;font-stretch:normal;font-size:52.1681px;font-family:'Fira Code';-inkscape-font-specification:'Fira Code, Normal';font-variant-ligatures:normal;font-variant-caps:normal;font-variant-numeric:normal;font-variant-east-asian:normal;text-align:end;text-anchor:end;fill:#ffffff;fill-opacity:1;stroke-width:0.172535">@patekvpatek</tspan></text>
      <path
         fill="currentColor"
         d="m 1233.4917,422.78194 c 0.04,0.57056 0.04,1.14124 0.04,1.7118 0,17.40293 -13.2459,37.4552 -37.4553,37.4552 -7.4585,0 -14.3869,-2.16019 -20.2152,-5.90963 1.0598,0.1222 2.0784,0.16297 3.179,0.16297 6.1541,0 11.8194,-2.07852 16.3435,-5.62434 -5.7876,-0.12231 -10.6376,-3.91265 -12.3087,-9.1295 0.8152,0.12219 1.6304,0.20372 2.4863,0.20372 1.1819,0 2.364,-0.16308 3.4643,-0.44823 -6.0319,-1.22282 -10.556,-6.52109 -10.556,-12.91985 v -0.16297 c 1.7523,0.97816 3.7904,1.5895 5.9503,1.67092 -3.5458,-2.36392 -5.8688,-6.39877 -5.8688,-10.96352 0,-2.44534 0.652,-4.68695 1.7932,-6.64328 6.4803,7.98828 16.2212,13.20501 27.1438,13.77569 -0.2037,-0.97815 -0.326,-1.99696 -0.326,-3.01591 0,-7.25473 5.8689,-13.16435 13.1643,-13.16435 3.7903,0 7.2139,1.5895 9.6185,4.15716 2.9752,-0.57056 5.8281,-1.67103 8.355,-3.17899 -0.9781,3.0568 -3.0566,5.62445 -5.7873,7.25461 2.6491,-0.28516 5.2168,-1.01894 7.5806,-2.03776 -1.793,2.60831 -4.0347,4.93135 -6.6023,6.80626 z"
         id="path2091"
         style="fill:#ffffff;fill-opacity:1;stroke-width:0.125454" />
      <path
         fill="currentColor"
         d="m 1137.3939,414.5299 -9.3872,44.26993 c -0.7083,3.12445 -2.5551,3.90209 -5.1796,2.43013 l -14.3031,-10.5398 -6.9015,6.63771 c -0.7637,0.76376 -1.4025,1.40253 -2.8745,1.40253 l 1.0275,-14.56686 26.5093,-23.95409 c 1.1525,-1.02759 -0.25,-1.59694 -1.7914,-0.56935 l -32.7719,20.63525 -14.1087,-4.41589 c -3.0689,-0.95817 -3.1243,-3.06891 0.6389,-4.54087 l 55.1845,-21.26011 c 2.5551,-0.95817 4.7909,0.56934 3.9577,4.47142 z"
         id="path2102"
         style="fill:#ffffff;fill-opacity:1;stroke-width:0.138864" />
      <g
         inkscape:label="QR Code: https://patekvpatek.cz"
         transform="matrix(1.3739621,0,0,1.3739621,1572.6226,471.25617)"
         id="g7">
        <g
           style="fill:#ffffff;fill-opacity:1;stroke:none"
           id="g6"
           transform="matrix(1.3587175,0,0,1.3587175,80.661297,-164.64246)">
          <path
             d="m 115.6,116 h -3.2 c -0.221,0 -0.4,-0.179 -0.4,-0.4 v -3.2 c 0,-0.221 0.179,-0.4 0.4,-0.4 h 3.2 c 0.221,0 0.4,0.179 0.4,0.4 v 3.2 c 0,0.221 -0.179,0.4 -0.4,0.4 z m -12,0 h -3.2 c -0.221,0 -0.4,-0.179 -0.4,-0.4 V 112 h 3.6 c 0.221,0 0.4,0.179 0.4,0.4 v 3.2 c 0,0.221 -0.179,0.4 -0.4,0.4 z m -12,0 H 88.4 C 88.1791,116 88,115.821 88,115.6 V 112 h 4 v 3.6 c 0,0.221 -0.1791,0.4 -0.4,0.4 z m -8,0 H 80.4 C 80.1791,116 80,115.821 80,115.6 V 108 h 3.6 c 0.2209,0 0.4,-0.179 0.4,-0.4 v -3.2 c 0,-0.221 -0.1791,-0.4 -0.4,-0.4 h -3.2 c -0.2209,0 -0.4,0.179 -0.4,0.4 v 3.6 h -3.6 c -0.2209,0 -0.4,-0.179 -0.4,-0.4 v -7.2 c 0,-0.221 -0.1791,-0.4 -0.4,-0.4 h -3.2 c -0.2209,0 -0.4,0.179 -0.4,0.4 v 3.2 c 0,0.221 -0.1791,0.4 -0.4,0.4 H 68.4 C 68.1791,104 68,103.821 68,103.6 V 96 h 7.6 C 75.8209,96 76,95.8209 76,95.6 V 92 h 3.6 C 79.8209,92 80,91.8209 80,91.6 V 88.4 C 80,88.1791 79.8209,88 79.6,88 H 76.4 C 76.1791,88 76,88.1791 76,88.4 V 92 H 72.4 C 72.1791,92 72,91.8209 72,91.6 V 88.4 C 72,88.1791 71.8209,88 71.6,88 H 68.4 C 68.1791,88 68,88.1791 68,88.4 V 96 h -8 v -4 h 3.6 C 63.8209,92 64,91.8209 64,91.6 V 84.4 C 64,84.1791 63.8209,84 63.6,84 H 60.4 C 60.1791,84 60,83.8209 60,83.6 V 80.4 C 60,80.1791 60.1791,80 60.4,80 h 7.2 c 0.2209,0 0.4,0.1791 0.4,0.4 v 3.2 c 0,0.2209 0.1791,0.4 0.4,0.4 h 7.2 C 75.8209,84 76,83.8209 76,83.6 V 80.4 C 76,80.1791 75.8209,80 75.6,80 H 72.4 C 72.1791,80 72,79.8209 72,79.6 V 72.4 C 72,72.1791 72.1791,72 72.4,72 h 3.2 C 75.8209,72 76,71.8209 76,71.6 V 64.4 C 76,64.1791 76.1791,64 76.4,64 h 3.2 c 0.2209,0 0.4,0.1791 0.4,0.4 v 3.2 c 0,0.2209 0.1791,0.4 0.4,0.4 h 7.2 C 87.8209,68 88,67.8209 88,67.6 V 64 h 3.6 c 0.2209,0 0.4,0.1791 0.4,0.4 v 3.2 c 0,0.2209 0.1791,0.4 0.4,0.4 h 3.2 c 0.2209,0 0.4,0.1791 0.4,0.4 v 3.2 C 96,71.8209 95.8209,72 95.6,72 H 92.4 C 92.1791,72 92,72.1791 92,72.4 V 76 H 88.4 C 88.1791,76 88,75.8209 88,75.6 V 72.4 C 88,72.1791 87.8209,72 87.6,72 H 84.4 C 84.1791,72 84,72.1791 84,72.4 v 7.2 c 0,0.2209 0.1791,0.4 0.4,0.4 h 7.2 C 91.8209,80 92,79.8209 92,79.6 V 76 h 7.6 c 0.2209,0 0.4,-0.1791 0.4,-0.4 v -3.2 c 0,-0.2209 0.179,-0.4 0.4,-0.4 h 7.6 v 3.6 c 0,0.2209 -0.179,0.4 -0.4,0.4 h -3.2 c -0.221,0 -0.4,0.1791 -0.4,0.4 v 3.2 c 0,0.2209 -0.179,0.4 -0.4,0.4 h -3.2 c -0.221,0 -0.4,0.1791 -0.4,0.4 v 23.2 c 0,0.221 0.179,0.4 0.4,0.4 h 3.6 v 3.6 c 0,0.221 -0.179,0.4 -0.4,0.4 h -3.2 c -0.221,0 -0.4,0.179 -0.4,0.4 v 3.6 h -8 v -7.6 c 0,-0.221 0.1791,-0.4 0.4,-0.4 h 3.2 c 0.2209,0 0.4,-0.179 0.4,-0.4 v -3.2 c 0,-0.221 -0.1791,-0.4 -0.4,-0.4 h -7.2 c -0.2209,0 -0.4,0.179 -0.4,0.4 V 112 h -3.6 c -0.2209,0 -0.4,0.179 -0.4,0.4 v 3.2 c 0,0.221 -0.1791,0.4 -0.4,0.4 z m -12,0 H 56.4 c -0.2209,0 -0.4,-0.179 -0.4,-0.4 v -3.2 C 56,112.179 55.8209,112 55.6,112 H 52 v -4 h 8 v 3.6 c 0,0.221 0.1791,0.4 0.4,0.4 h 7.2 c 0.2209,0 0.4,-0.179 0.4,-0.4 v -3.2 c 0,-0.221 0.1791,-0.4 0.4,-0.4 h 3.2 c 0.2209,0 0.4,0.179 0.4,0.4 v 7.2 c 0,0.221 -0.1791,0.4 -0.4,0.4 z m -20,0 h -3.2 c -0.2209,0 -0.4,-0.179 -0.4,-0.4 v -3.2 c 0,-0.221 0.1791,-0.4 0.4,-0.4 H 52 v 3.6 c 0,0.221 -0.1791,0.4 -0.4,0.4 z m -8,0 H 16.4 C 16.1791,116 16,115.821 16,115.6 V 88.4 C 16,88.1791 16.1791,88 16.4,88 h 27.2 c 0.2209,0 0.4,0.1791 0.4,0.4 v 27.2 c 0,0.221 -0.1791,0.4 -0.4,0.4 z M 40,111.6 V 92.4 C 40,92.1791 39.8209,92 39.6,92 H 20.4 C 20.1791,92 20,92.1791 20,92.4 v 19.2 c 0,0.221 0.1791,0.4 0.4,0.4 h 19.2 c 0.2209,0 0.4,-0.179 0.4,-0.4 z m 75.6,-3.6 h -7.2 c -0.221,0 -0.4,-0.179 -0.4,-0.4 v -3.2 c 0,-0.221 -0.179,-0.4 -0.4,-0.4 H 104 v -3.6 c 0,-0.221 0.179,-0.4 0.4,-0.4 h 7.6 v 3.6 c 0,0.221 0.179,0.4 0.4,0.4 h 3.2 c 0.221,0 0.4,0.179 0.4,0.4 v 3.2 c 0,0.221 -0.179,0.4 -0.4,0.4 z m -52,0 H 60 v -4 h 3.6 c 0.2209,0 0.4,0.179 0.4,0.4 v 3.2 c 0,0.221 -0.1791,0.4 -0.4,0.4 z m -12,0 h -3.2 c -0.2209,0 -0.4,-0.179 -0.4,-0.4 v -3.2 c 0,-0.221 0.1791,-0.4 0.4,-0.4 h 3.2 c 0.2209,0 0.4,0.179 0.4,0.4 v 3.6 z m -16,0 H 24.4 C 24.1791,108 24,107.821 24,107.6 V 96.4 C 24,96.1791 24.1791,96 24.4,96 h 11.2 c 0.2209,0 0.4,0.1791 0.4,0.4 v 11.2 c 0,0.221 -0.1791,0.4 -0.4,0.4 z m 24,-4 H 56.4 C 56.1791,104 56,103.821 56,103.6 V 96 h 4 v 8 z m 56,-4 H 112 V 84 h 3.6 c 0.221,0 0.4,0.1791 0.4,0.4 v 15.2 c 0,0.2209 -0.179,0.4 -0.4,0.4 z M 96,95.6 V 84.4 C 96,84.1791 95.8209,84 95.6,84 H 84.4 C 84.1791,84 84,84.1791 84,84.4 v 11.2 c 0,0.2209 0.1791,0.4 0.4,0.4 H 95.6 C 95.8209,96 96,95.8209 96,95.6 Z M 55.6,96 H 52.4 C 52.1791,96 52,95.8209 52,95.6 V 92.4 C 52,92.1791 51.8209,92 51.6,92 H 48.4 C 48.1791,92 48,91.8209 48,91.6 V 84.4 C 48,84.1791 47.8209,84 47.6,84 H 36.4 C 36.1791,84 36,83.8209 36,83.6 V 80 h 7.6 C 43.8209,80 44,79.8209 44,79.6 V 76.4 C 44,76.1791 43.8209,76 43.6,76 H 36 V 72.4 C 36,72.1791 36.1791,72 36.4,72 h 7.2 C 43.8209,72 44,71.8209 44,71.6 V 68.4 C 44,68.1791 43.8209,68 43.6,68 H 32 V 64.4 C 32,64.1791 31.8209,64 31.6,64 H 28.4 C 28.1791,64 28,63.8209 28,63.6 V 56.4 C 28,56.1791 27.8209,56 27.6,56 H 24 V 48.4 C 24,48.1791 24.1791,48 24.4,48 h 3.2 c 0.2209,0 0.4,0.1791 0.4,0.4 v 3.2 c 0,0.2209 0.1791,0.4 0.4,0.4 h 3.2 c 0.2209,0 0.4,0.1791 0.4,0.4 v 3.2 c 0,0.2209 0.1791,0.4 0.4,0.4 h 11.2 c 0.2209,0 0.4,0.1791 0.4,0.4 v 3.2 C 44,59.8209 43.8209,60 43.6,60 H 36.4 C 36.1791,60 36,60.1791 36,60.4 v 3.2 c 0,0.2209 0.1791,0.4 0.4,0.4 H 48 v 15.6 c 0,0.2209 0.1791,0.4 0.4,0.4 h 3.2 c 0.2209,0 0.4,0.1791 0.4,0.4 v 3.2 c 0,0.2209 0.1791,0.4 0.4,0.4 h 3.2 c 0.2209,0 0.4,0.1791 0.4,0.4 v 3.2 c 0,0.2209 0.1791,0.4 0.4,0.4 h 3.2 c 0.2209,0 0.4,0.1791 0.4,0.4 V 92 H 56.4 C 56.1791,92 56,92.1791 56,92.4 V 96 Z m 36,-4 H 88.4 C 88.1791,92 88,91.8209 88,91.6 V 88.4 C 88,88.1791 88.1791,88 88.4,88 h 3.2 c 0.2209,0 0.4,0.1791 0.4,0.4 v 3.2 c 0,0.2209 -0.1791,0.4 -0.4,0.4 z m 20,-8 h -3.2 c -0.221,0 -0.4,-0.1791 -0.4,-0.4 v -3.2 c 0,-0.2209 0.179,-0.4 0.4,-0.4 h 3.2 c 0.221,0 0.4,0.1791 0.4,0.4 V 84 Z m -84,0 H 16.4 C 16.1791,84 16,83.8209 16,83.6 V 80.4 C 16,80.1791 16.1791,80 16.4,80 h 7.2 C 23.8209,80 24,79.8209 24,79.6 V 76.4 C 24,76.1791 23.8209,76 23.6,76 H 16.4 C 16.1791,76 16,75.8209 16,75.6 V 72.4 C 16,72.1791 16.1791,72 16.4,72 h 3.2 C 19.8209,72 20,71.8209 20,71.6 V 68 h 3.6 c 0.2209,0 0.4,0.1791 0.4,0.4 v 3.2 c 0,0.2209 0.1791,0.4 0.4,0.4 H 28 v 11.6 c 0,0.2209 -0.1791,0.4 -0.4,0.4 z m 8,-4 H 32.4 C 32.1791,80 32,79.8209 32,79.6 V 76.4 C 32,76.1791 32.1791,76 32.4,76 H 36 v 4 z m 80,-4 h -3.2 C 112.179,76 112,75.8209 112,75.6 V 72.4 C 112,72.1791 111.821,72 111.6,72 H 108 v -3.6 c 0,-0.2209 0.179,-0.4 0.4,-0.4 h 3.2 c 0.221,0 0.4,-0.1791 0.4,-0.4 v -3.2 c 0,-0.2209 0.179,-0.4 0.4,-0.4 h 3.2 c 0.221,0 0.4,0.1791 0.4,0.4 v 11.2 c 0,0.2209 -0.179,0.4 -0.4,0.4 z m -52,0 H 52.4 C 52.1791,76 52,75.8209 52,75.6 V 64.4 C 52,64.1791 51.8209,64 51.6,64 H 48 V 52 h 4 v 3.6 c 0,0.2209 0.1791,0.4 0.4,0.4 h 3.2 c 0.2209,0 0.4,0.1791 0.4,0.4 v 11.2 c 0,0.2209 0.1791,0.4 0.4,0.4 H 60 v 3.6 c 0,0.2209 0.1791,0.4 0.4,0.4 h 3.2 c 0.2209,0 0.4,0.1791 0.4,0.4 v 3.2 c 0,0.2209 -0.1791,0.4 -0.4,0.4 z m -32,-4 H 28 V 68.4 C 28,68.1791 28.1791,68 28.4,68 H 32 v 3.6 c 0,0.2209 -0.1791,0.4 -0.4,0.4 z m 32,-4 H 60 V 48.4 C 60,48.1791 60.1791,48 60.4,48 h 3.2 C 63.8209,48 64,47.8209 64,47.6 V 36.4 C 64,36.1791 63.8209,36 63.6,36 H 60 V 32.4 C 60,32.1791 60.1791,32 60.4,32 H 68 v 3.6 c 0,0.2209 0.1791,0.4 0.4,0.4 H 72 v 4 H 68.4 C 68.1791,40 68,40.1791 68,40.4 V 52 H 64.4 C 64.1791,52 64,52.1791 64,52.4 v 15.2 c 0,0.2209 -0.1791,0.4 -0.4,0.4 z m -44,0 H 16.4 C 16.1791,68 16,67.8209 16,67.6 V 64.4 C 16,64.1791 16.1791,64 16.4,64 h 3.2 c 0.2209,0 0.4,0.1791 0.4,0.4 V 68 Z m 84,-4 h -3.2 C 100.179,64 100,63.8209 100,63.6 V 60.4 C 100,60.1791 99.8209,60 99.6,60 H 88.4 C 88.1791,60 88,60.1791 88,60.4 V 64 H 84.4 C 84.1791,64 84,63.8209 84,63.6 V 60.4 C 84,60.1791 83.8209,60 83.6,60 H 76.4 C 76.1791,60 76,59.8209 76,59.6 V 52.4 C 76,52.1791 75.8209,52 75.6,52 H 72 V 40 h 3.6 c 0.2209,0 0.4,0.1791 0.4,0.4 v 7.2 c 0,0.2209 0.1791,0.4 0.4,0.4 h 7.2 c 0.2209,0 0.4,0.1791 0.4,0.4 v 7.2 c 0,0.2209 0.1791,0.4 0.4,0.4 h 3.2 C 87.8209,56 88,55.8209 88,55.6 V 52.4 C 88,52.1791 88.1791,52 88.4,52 h 3.2 C 91.8209,52 92,51.8209 92,51.6 V 48.4 C 92,48.1791 92.1791,48 92.4,48 h 3.2 c 0.2209,0 0.4,0.1791 0.4,0.4 v 7.2 c 0,0.2209 0.1791,0.4 0.4,0.4 h 3.2 c 0.2209,0 0.4,-0.1791 0.4,-0.4 v -3.2 c 0,-0.2209 0.179,-0.4 0.4,-0.4 h 3.6 v 3.6 c 0,0.2209 0.179,0.4 0.4,0.4 h 3.6 v 3.6 c 0,0.2209 -0.179,0.4 -0.4,0.4 h -3.2 c -0.221,0 -0.4,0.1791 -0.4,0.4 v 3.2 c 0,0.2209 -0.179,0.4 -0.4,0.4 z m 12,-4 h -3.2 C 112.179,60 112,59.8209 112,59.6 V 56.4 C 112,56.1791 111.821,56 111.6,56 H 108 v -4 h 3.6 c 0.221,0 0.4,-0.1791 0.4,-0.4 v -3.2 c 0,-0.2209 0.179,-0.4 0.4,-0.4 h 3.2 c 0.221,0 0.4,0.1791 0.4,0.4 v 11.2 c 0,0.2209 -0.179,0.4 -0.4,0.4 z m -92,0 H 20.4 C 20.1791,60 20,59.8209 20,59.6 V 56 h 4 v 3.6 c 0,0.2209 -0.1791,0.4 -0.4,0.4 z m 48,-4 H 68.4 C 68.1791,56 68,55.8209 68,55.6 V 52 h 4 v 3.6 c 0,0.2209 -0.1791,0.4 -0.4,0.4 z m -52,0 H 16.4 C 16.1791,56 16,55.8209 16,55.6 V 48.4 C 16,48.1791 16.1791,48 16.4,48 h 3.2 c 0.2209,0 0.4,0.1791 0.4,0.4 V 56 Z m 88,-4 H 104 v -3.6 c 0,-0.2209 0.179,-0.4 0.4,-0.4 h 3.2 c 0.221,0 0.4,0.1791 0.4,0.4 V 52 Z m -52,0 H 52 v -8 h 4 v 7.6 c 0,0.2209 -0.1791,0.4 -0.4,0.4 z m -8,0 H 40.4 C 40.1791,52 40,51.8209 40,51.6 V 48.4 C 40,48.1791 40.1791,48 40.4,48 h 7.2 c 0.2209,0 0.4,0.1791 0.4,0.4 V 52 Z m 68,-8 H 88.4 C 88.1791,44 88,43.8209 88,43.6 V 16.4 C 88,16.1791 88.1791,16 88.4,16 h 27.2 c 0.221,0 0.4,0.1791 0.4,0.4 v 27.2 c 0,0.2209 -0.179,0.4 -0.4,0.4 z m -32,0 H 80.4 C 80.1791,44 80,43.8209 80,43.6 V 36.4 C 80,36.1791 80.1791,36 80.4,36 h 3.2 c 0.2209,0 0.4,0.1791 0.4,0.4 v 7.2 c 0,0.2209 -0.1791,0.4 -0.4,0.4 z m -24,0 H 56 V 40.4 C 56,40.1791 55.8209,40 55.6,40 H 52.4 C 52.1791,40 52,40.1791 52,40.4 V 44 H 48.4 C 48.1791,44 48,43.8209 48,43.6 V 36.4 C 48,36.1791 48.1791,36 48.4,36 h 3.2 C 51.8209,36 52,35.8209 52,35.6 V 28 h 3.6 c 0.2209,0 0.4,0.1791 0.4,0.4 v 7.2 c 0,0.2209 0.1791,0.4 0.4,0.4 H 60 v 7.6 c 0,0.2209 -0.1791,0.4 -0.4,0.4 z m -16,0 H 16.4 C 16.1791,44 16,43.8209 16,43.6 V 16.4 C 16,16.1791 16.1791,16 16.4,16 h 27.2 c 0.2209,0 0.4,0.1791 0.4,0.4 V 43.6 C 44,43.8209 43.8209,44 43.6,44 Z M 112,39.6 V 20.4 C 112,20.1791 111.821,20 111.6,20 H 92.4 C 92.1791,20 92,20.1791 92,20.4 v 19.2 c 0,0.2209 0.1791,0.4 0.4,0.4 h 19.2 c 0.221,0 0.4,-0.1791 0.4,-0.4 z m -72,0 V 20.4 C 40,20.1791 39.8209,20 39.6,20 H 20.4 C 20.1791,20 20,20.1791 20,20.4 v 19.2 c 0,0.2209 0.1791,0.4 0.4,0.4 H 39.6 C 39.8209,40 40,39.8209 40,39.6 Z M 107.6,36 H 96.4 C 96.1791,36 96,35.8209 96,35.6 V 24.4 C 96,24.1791 96.1791,24 96.4,24 h 11.2 c 0.221,0 0.4,0.1791 0.4,0.4 v 11.2 c 0,0.2209 -0.179,0.4 -0.4,0.4 z m -32,0 H 72 V 32.4 C 72,32.1791 71.8209,32 71.6,32 H 68 V 28.4 C 68,28.1791 67.8209,28 67.6,28 H 64.4 C 64.1791,28 64,27.8209 64,27.6 V 24 h 8 v 3.6 c 0,0.2209 0.1791,0.4 0.4,0.4 H 76 v 7.6 c 0,0.2209 -0.1791,0.4 -0.4,0.4 z m -40,0 H 24.4 C 24.1791,36 24,35.8209 24,35.6 V 24.4 C 24,24.1791 24.1791,24 24.4,24 h 11.2 c 0.2209,0 0.4,0.1791 0.4,0.4 v 11.2 c 0,0.2209 -0.1791,0.4 -0.4,0.4 z m 48,-4 H 80.4 C 80.1791,32 80,31.8209 80,31.6 V 28 h 3.6 c 0.2209,0 0.4,0.1791 0.4,0.4 v 3.2 c 0,0.2209 -0.1791,0.4 -0.4,0.4 z m -4,-4 H 76 v -4 h 3.6 c 0.2209,0 0.4,0.1791 0.4,0.4 V 28 Z m -28,0 H 48.4 C 48.1791,28 48,27.8209 48,27.6 V 24.4 C 48,24.1791 48.1791,24 48.4,24 H 52 v 4 z m 24,-4 H 72 V 20.4 C 72,20.1791 71.8209,20 71.6,20 H 68.4 C 68.1791,20 68,19.8209 68,19.6 V 16.4 C 68,16.1791 68.1791,16 68.4,16 h 7.2 c 0.2209,0 0.4,0.1791 0.4,0.4 V 24 Z m -12,0 H 60.4 C 60.1791,24 60,23.8209 60,23.6 V 16.4 C 60,16.1791 60.1791,16 60.4,16 h 3.2 c 0.2209,0 0.4,0.1791 0.4,0.4 V 24 Z m -8,0 H 52 V 20.4 C 52,20.1791 51.8209,20 51.6,20 H 48.4 C 48.1791,20 48,19.8209 48,19.6 V 16.4 C 48,16.1791 48.1791,16 48.4,16 h 7.2 c 0.2209,0 0.4,0.1791 0.4,0.4 v 7.2 c 0,0.2209 -0.1791,0.4 -0.4,0.4 z"
             id="path6"
             style="fill:#ffffff;fill-opacity:1" />
        </g>
      </g>
    </g>
    <rect
       style="fill:#0b2a37;fill-opacity:1;stroke-width:1.40344;stroke-linecap:round;stroke-linejoin:round;paint-order:stroke markers fill"
       id="rect1"
       width="906"
       height="253"
       x="-478.98547"
       y="203.16875"
       inkscape:export-filename="../../../../../../tmp/přelep.pdf"
       inkscape:export-xdpi="300"
       inkscape:export-ydpi="300" />
    <g
       id="g9"
       transform="translate(-1513.6682,-40.26218)">
      <text
         xml:space="preserve"
         style="font-style:normal;font-weight:normal;font-size:9.22208px;line-height:1.25;font-family:sans-serif;letter-spacing:0px;word-spacing:0px;fill:#000000;fill-opacity:1;stroke:none;stroke-width:0.230552"
         x="1668.7627"
         y="363.62598"
         id="text1"><tspan
           sodipodi:role="line"
           id="tspan1"
           x="1668.7627"
           y="363.62598"
           style="font-style:normal;font-variant:normal;font-weight:normal;font-stretch:normal;font-size:69.7104px;font-family:'Fira Code';-inkscape-font-specification:'Fira Code, Normal';font-variant-ligatures:normal;font-variant-caps:normal;font-variant-numeric:normal;font-variant-east-asian:normal;text-align:end;text-anchor:end;fill:#ffffff;fill-opacity:1;stroke-width:0.230552">patekvpatek.cz</tspan></text>
      <text
         xml:space="preserve"
         style="font-style:normal;font-weight:normal;font-size:6.90134px;line-height:1.25;font-family:sans-serif;letter-spacing:0px;word-spacing:0px;fill:#000000;fill-opacity:1;stroke:none;stroke-width:0.172535"
         x="1663.1158"
         y="450.23108"
         id="text2"><tspan
           sodipodi:role="line"
           id="tspan2"
           x="1663.1158"
           y="450.23108"
           style="font-style:normal;font-variant:normal;font-weight:normal;font-stretch:normal;font-size:52.1681px;font-family:'Fira Code';-inkscape-font-specification:'Fira Code, Normal';font-variant-ligatures:normal;font-variant-caps:normal;font-variant-numeric:normal;font-variant-east-asian:normal;text-align:end;text-anchor:end;fill:#ffffff;fill-opacity:1;stroke-width:0.172535">@patekvpatek</tspan></text>
      <path
         fill="currentColor"
         d="m 1233.4917,422.78194 c 0.04,0.57056 0.04,1.14124 0.04,1.7118 0,17.40293 -13.2459,37.4552 -37.4553,37.4552 -7.4585,0 -14.3869,-2.16019 -20.2152,-5.90963 1.0598,0.1222 2.0784,0.16297 3.179,0.16297 6.1541,0 11.8194,-2.07852 16.3435,-5.62434 -5.7876,-0.12231 -10.6376,-3.91265 -12.3087,-9.1295 0.8152,0.12219 1.6304,0.20372 2.4863,0.20372 1.1819,0 2.364,-0.16308 3.4643,-0.44823 -6.0319,-1.22282 -10.556,-6.52109 -10.556,-12.91985 v -0.16297 c 1.7523,0.97816 3.7904,1.5895 5.9503,1.67092 -3.5458,-2.36392 -5.8688,-6.39877 -5.8688,-10.96352 0,-2.44534 0.652,-4.68695 1.7932,-6.64328 6.4803,7.98828 16.2212,13.20501 27.1438,13.77569 -0.2037,-0.97815 -0.326,-1.99696 -0.326,-3.01591 0,-7.25473 5.8689,-13.16435 13.1643,-13.16435 3.7903,0 7.2139,1.5895 9.6185,4.15716 2.9752,-0.57056 5.8281,-1.67103 8.355,-3.17899 -0.9781,3.0568 -3.0566,5.62445 -5.7873,7.25461 2.6491,-0.28516 5.2168,-1.01894 7.5806,-2.03776 -1.793,2.60831 -4.0347,4.93135 -6.6023,6.80626 z"
         id="path2"
         style="fill:#ffffff;fill-opacity:1;stroke-width:0.125454" />
      <path
         fill="currentColor"
         d="m 1137.3939,414.5299 -9.3872,44.26993 c -0.7083,3.12445 -2.5551,3.90209 -5.1796,2.43013 l -14.3031,-10.5398 -6.9015,6.63771 c -0.7637,0.76376 -1.4025,1.40253 -2.8745,1.40253 l 1.0275,-14.56686 26.5093,-23.95409 c 1.1525,-1.02759 -0.25,-1.59694 -1.7914,-0.56935 l -32.7719,20.63525 -14.1087,-4.41589 c -3.0689,-0.95817 -3.1243,-3.06891 0.6389,-4.54087 l 55.1845,-21.26011 c 2.5551,-0.95817 4.7909,0.56934 3.9577,4.47142 z"
         id="path3"
         style="fill:#ffffff;fill-opacity:1;stroke-width:0.138864" />
      <g
         inkscape:label="QR Code: https://patekvpatek.cz"
         transform="matrix(1.3739621,0,0,1.3739621,1572.6226,471.25617)"
         id="g5">
        <g
           style="fill:#ffffff;fill-opacity:1;stroke:none"
           id="g4"
           transform="matrix(1.3587175,0,0,1.3587175,80.661297,-164.64246)">
          <path
             d="m 115.6,116 h -3.2 c -0.221,0 -0.4,-0.179 -0.4,-0.4 v -3.2 c 0,-0.221 0.179,-0.4 0.4,-0.4 h 3.2 c 0.221,0 0.4,0.179 0.4,0.4 v 3.2 c 0,0.221 -0.179,0.4 -0.4,0.4 z m -12,0 h -3.2 c -0.221,0 -0.4,-0.179 -0.4,-0.4 V 112 h 3.6 c 0.221,0 0.4,0.179 0.4,0.4 v 3.2 c 0,0.221 -0.179,0.4 -0.4,0.4 z m -12,0 H 88.4 C 88.1791,116 88,115.821 88,115.6 V 112 h 4 v 3.6 c 0,0.221 -0.1791,0.4 -0.4,0.4 z m -8,0 H 80.4 C 80.1791,116 80,115.821 80,115.6 V 108 h 3.6 c 0.2209,0 0.4,-0.179 0.4,-0.4 v -3.2 c 0,-0.221 -0.1791,-0.4 -0.4,-0.4 h -3.2 c -0.2209,0 -0.4,0.179 -0.4,0.4 v 3.6 h -3.6 c -0.2209,0 -0.4,-0.179 -0.4,-0.4 v -7.2 c 0,-0.221 -0.1791,-0.4 -0.4,-0.4 h -3.2 c -0.2209,0 -0.4,0.179 -0.4,0.4 v 3.2 c 0,0.221 -0.1791,0.4 -0.4,0.4 H 68.4 C 68.1791,104 68,103.821 68,103.6 V 96 h 7.6 C 75.8209,96 76,95.8209 76,95.6 V 92 h 3.6 C 79.8209,92 80,91.8209 80,91.6 V 88.4 C 80,88.1791 79.8209,88 79.6,88 H 76.4 C 76.1791,88 76,88.1791 76,88.4 V 92 H 72.4 C 72.1791,92 72,91.8209 72,91.6 V 88.4 C 72,88.1791 71.8209,88 71.6,88 H 68.4 C 68.1791,88 68,88.1791 68,88.4 V 96 h -8 v -4 h 3.6 C 63.8209,92 64,91.8209 64,91.6 V 84.4 C 64,84.1791 63.8209,84 63.6,84 H 60.4 C 60.1791,84 60,83.8209 60,83.6 V 80.4 C 60,80.1791 60.1791,80 60.4,80 h 7.2 c 0.2209,0 0.4,0.1791 0.4,0.4 v 3.2 c 0,0.2209 0.1791,0.4 0.4,0.4 h 7.2 C 75.8209,84 76,83.8209 76,83.6 V 80.4 C 76,80.1791 75.8209,80 75.6,80 H 72.4 C 72.1791,80 72,79.8209 72,79.6 V 72.4 C 72,72.1791 72.1791,72 72.4,72 h 3.2 C 75.8209,72 76,71.8209 76,71.6 V 64.4 C 76,64.1791 76.1791,64 76.4,64 h 3.2 c 0.2209,0 0.4,0.1791 0.4,0.4 v 3.2 c 0,0.2209 0.1791,0.4 0.4,0.4 h 7.2 C 87.8209,68 88,67.8209 88,67.6 V 64 h 3.6 c 0.2209,0 0.4,0.1791 0.4,0.4 v 3.2 c 0,0.2209 0.1791,0.4 0.4,0.4 h 3.2 c 0.2209,0 0.4,0.1791 0.4,0.4 v 3.2 C 96,71.8209 95.8209,72 95.6,72 H 92.4 C 92.1791,72 92,72.1791 92,72.4 V 76 H 88.4 C 88.1791,76 88,75.8209 88,75.6 V 72.4 C 88,72.1791 87.8209,72 87.6,72 H 84.4 C 84.1791,72 84,72.1791 84,72.4 v 7.2 c 0,0.2209 0.1791,0.4 0.4,0.4 h 7.2 C 91.8209,80 92,79.8209 92,79.6 V 76 h 7.6 c 0.2209,0 0.4,-0.1791 0.4,-0.4 v -3.2 c 0,-0.2209 0.179,-0.4 0.4,-0.4 h 7.6 v 3.6 c 0,0.2209 -0.179,0.4 -0.4,0.4 h -3.2 c -0.221,0 -0.4,0.1791 -0.4,0.4 v 3.2 c 0,0.2209 -0.179,0.4 -0.4,0.4 h -3.2 c -0.221,0 -0.4,0.1791 -0.4,0.4 v 23.2 c 0,0.221 0.179,0.4 0.4,0.4 h 3.6 v 3.6 c 0,0.221 -0.179,0.4 -0.4,0.4 h -3.2 c -0.221,0 -0.4,0.179 -0.4,0.4 v 3.6 h -8 v -7.6 c 0,-0.221 0.1791,-0.4 0.4,-0.4 h 3.2 c 0.2209,0 0.4,-0.179 0.4,-0.4 v -3.2 c 0,-0.221 -0.1791,-0.4 -0.4,-0.4 h -7.2 c -0.2209,0 -0.4,0.179 -0.4,0.4 V 112 h -3.6 c -0.2209,0 -0.4,0.179 -0.4,0.4 v 3.2 c 0,0.221 -0.1791,0.4 -0.4,0.4 z m -12,0 H 56.4 c -0.2209,0 -0.4,-0.179 -0.4,-0.4 v -3.2 C 56,112.179 55.8209,112 55.6,112 H 52 v -4 h 8 v 3.6 c 0,0.221 0.1791,0.4 0.4,0.4 h 7.2 c 0.2209,0 0.4,-0.179 0.4,-0.4 v -3.2 c 0,-0.221 0.1791,-0.4 0.4,-0.4 h 3.2 c 0.2209,0 0.4,0.179 0.4,0.4 v 7.2 c 0,0.221 -0.1791,0.4 -0.4,0.4 z m -20,0 h -3.2 c -0.2209,0 -0.4,-0.179 -0.4,-0.4 v -3.2 c 0,-0.221 0.1791,-0.4 0.4,-0.4 H 52 v 3.6 c 0,0.221 -0.1791,0.4 -0.4,0.4 z m -8,0 H 16.4 C 16.1791,116 16,115.821 16,115.6 V 88.4 C 16,88.1791 16.1791,88 16.4,88 h 27.2 c 0.2209,0 0.4,0.1791 0.4,0.4 v 27.2 c 0,0.221 -0.1791,0.4 -0.4,0.4 z M 40,111.6 V 92.4 C 40,92.1791 39.8209,92 39.6,92 H 20.4 C 20.1791,92 20,92.1791 20,92.4 v 19.2 c 0,0.221 0.1791,0.4 0.4,0.4 h 19.2 c 0.2209,0 0.4,-0.179 0.4,-0.4 z m 75.6,-3.6 h -7.2 c -0.221,0 -0.4,-0.179 -0.4,-0.4 v -3.2 c 0,-0.221 -0.179,-0.4 -0.4,-0.4 H 104 v -3.6 c 0,-0.221 0.179,-0.4 0.4,-0.4 h 7.6 v 3.6 c 0,0.221 0.179,0.4 0.4,0.4 h 3.2 c 0.221,0 0.4,0.179 0.4,0.4 v 3.2 c 0,0.221 -0.179,0.4 -0.4,0.4 z m -52,0 H 60 v -4 h 3.6 c 0.2209,0 0.4,0.179 0.4,0.4 v 3.2 c 0,0.221 -0.1791,0.4 -0.4,0.4 z m -12,0 h -3.2 c -0.2209,0 -0.4,-0.179 -0.4,-0.4 v -3.2 c 0,-0.221 0.1791,-0.4 0.4,-0.4 h 3.2 c 0.2209,0 0.4,0.179 0.4,0.4 v 3.6 z m -16,0 H 24.4 C 24.1791,108 24,107.821 24,107.6 V 96.4 C 24,96.1791 24.1791,96 24.4,96 h 11.2 c 0.2209,0 0.4,0.1791 0.4,0.4 v 11.2 c 0,0.221 -0.1791,0.4 -0.4,0.4 z m 24,-4 H 56.4 C 56.1791,104 56,103.821 56,103.6 V 96 h 4 v 8 z m 56,-4 H 112 V 84 h 3.6 c 0.221,0 0.4,0.1791 0.4,0.4 v 15.2 c 0,0.2209 -0.179,0.4 -0.4,0.4 z M 96,95.6 V 84.4 C 96,84.1791 95.8209,84 95.6,84 H 84.4 C 84.1791,84 84,84.1791 84,84.4 v 11.2 c 0,0.2209 0.1791,0.4 0.4,0.4 H 95.6 C 95.8209,96 96,95.8209 96,95.6 Z M 55.6,96 H 52.4 C 52.1791,96 52,95.8209 52,95.6 V 92.4 C 52,92.1791 51.8209,92 51.6,92 H 48.4 C 48.1791,92 48,91.8209 48,91.6 V 84.4 C 48,84.1791 47.8209,84 47.6,84 H 36.4 C 36.1791,84 36,83.8209 36,83.6 V 80 h 7.6 C 43.8209,80 44,79.8209 44,79.6 V 76.4 C 44,76.1791 43.8209,76 43.6,76 H 36 V 72.4 C 36,72.1791 36.1791,72 36.4,72 h 7.2 C 43.8209,72 44,71.8209 44,71.6 V 68.4 C 44,68.1791 43.8209,68 43.6,68 H 32 V 64.4 C 32,64.1791 31.8209,64 31.6,64 H 28.4 C 28.1791,64 28,63.8209 28,63.6 V 56.4 C 28,56.1791 27.8209,56 27.6,56 H 24 V 48.4 C 24,48.1791 24.1791,48 24.4,48 h 3.2 c 0.2209,0 0.4,0.1791 0.4,0.4 v 3.2 c 0,0.2209 0.1791,0.4 0.4,0.4 h 3.2 c 0.2209,0 0.4,0.1791 0.4,0.4 v 3.2 c 0,0.2209 0.1791,0.4 0.4,0.4 h 11.2 c 0.2209,0 0.4,0.1791 0.4,0.4 v 3.2 C 44,59.8209 43.8209,60 43.6,60 H 36.4 C 36.1791,60 36,60.1791 36,60.4 v 3.2 c 0,0.2209 0.1791,0.4 0.4,0.4 H 48 v 15.6 c 0,0.2209 0.1791,0.4 0.4,0.4 h 3.2 c 0.2209,0 0.4,0.1791 0.4,0.4 v 3.2 c 0,0.2209 0.1791,0.4 0.4,0.4 h 3.2 c 0.2209,0 0.4,0.1791 0.4,0.4 v 3.2 c 0,0.2209 0.1791,0.4 0.4,0.4 h 3.2 c 0.2209,0 0.4,0.1791 0.4,0.4 V 92 H 56.4 C 56.1791,92 56,92.1791 56,92.4 V 96 Z m 36,-4 H 88.4 C 88.1791,92 88,91.8209 88,91.6 V 88.4 C 88,88.1791 88.1791,88 88.4,88 h 3.2 c 0.2209,0 0.4,0.1791 0.4,0.4 v 3.2 c 0,0.2209 -0.1791,0.4 -0.4,0.4 z m 20,-8 h -3.2 c -0.221,0 -0.4,-0.1791 -0.4,-0.4 v -3.2 c 0,-0.2209 0.179,-0.4 0.4,-0.4 h 3.2 c 0.221,0 0.4,0.1791 0.4,0.4 V 84 Z m -84,0 H 16.4 C 16.1791,84 16,83.8209 16,83.6 V 80.4 C 16,80.1791 16.1791,80 16.4,80 h 7.2 C 23.8209,80 24,79.8209 24,79.6 V 76.4 C 24,76.1791 23.8209,76 23.6,76 H 16.4 C 16.1791,76 16,75.8209 16,75.6 V 72.4 C 16,72.1791 16.1791,72 16.4,72 h 3.2 C 19.8209,72 20,71.8209 20,71.6 V 68 h 3.6 c 0.2209,0 0.4,0.1791 0.4,0.4 v 3.2 c 0,0.2209 0.1791,0.4 0.4,0.4 H 28 v 11.6 c 0,0.2209 -0.1791,0.4 -0.4,0.4 z m 8,-4 H 32.4 C 32.1791,80 32,79.8209 32,79.6 V 76.4 C 32,76.1791 32.1791,76 32.4,76 H 36 v 4 z m 80,-4 h -3.2 C 112.179,76 112,75.8209 112,75.6 V 72.4 C 112,72.1791 111.821,72 111.6,72 H 108 v -3.6 c 0,-0.2209 0.179,-0.4 0.4,-0.4 h 3.2 c 0.221,0 0.4,-0.1791 0.4,-0.4 v -3.2 c 0,-0.2209 0.179,-0.4 0.4,-0.4 h 3.2 c 0.221,0 0.4,0.1791 0.4,0.4 v 11.2 c 0,0.2209 -0.179,0.4 -0.4,0.4 z m -52,0 H 52.4 C 52.1791,76 52,75.8209 52,75.6 V 64.4 C 52,64.1791 51.8209,64 51.6,64 H 48 V 52 h 4 v 3.6 c 0,0.2209 0.1791,0.4 0.4,0.4 h 3.2 c 0.2209,0 0.4,0.1791 0.4,0.4 v 11.2 c 0,0.2209 0.1791,0.4 0.4,0.4 H 60 v 3.6 c 0,0.2209 0.1791,0.4 0.4,0.4 h 3.2 c 0.2209,0 0.4,0.1791 0.4,0.4 v 3.2 c 0,0.2209 -0.1791,0.4 -0.4,0.4 z m -32,-4 H 28 V 68.4 C 28,68.1791 28.1791,68 28.4,68 H 32 v 3.6 c 0,0.2209 -0.1791,0.4 -0.4,0.4 z m 32,-4 H 60 V 48.4 C 60,48.1791 60.1791,48 60.4,48 h 3.2 C 63.8209,48 64,47.8209 64,47.6 V 36.4 C 64,36.1791 63.8209,36 63.6,36 H 60 V 32.4 C 60,32.1791 60.1791,32 60.4,32 H 68 v 3.6 c 0,0.2209 0.1791,0.4 0.4,0.4 H 72 v 4 H 68.4 C 68.1791,40 68,40.1791 68,40.4 V 52 H 64.4 C 64.1791,52 64,52.1791 64,52.4 v 15.2 c 0,0.2209 -0.1791,0.4 -0.4,0.4 z m -44,0 H 16.4 C 16.1791,68 16,67.8209 16,67.6 V 64.4 C 16,64.1791 16.1791,64 16.4,64 h 3.2 c 0.2209,0 0.4,0.1791 0.4,0.4 V 68 Z m 84,-4 h -3.2 C 100.179,64 100,63.8209 100,63.6 V 60.4 C 100,60.1791 99.8209,60 99.6,60 H 88.4 C 88.1791,60 88,60.1791 88,60.4 V 64 H 84.4 C 84.1791,64 84,63.8209 84,63.6 V 60.4 C 84,60.1791 83.8209,60 83.6,60 H 76.4 C 76.1791,60 76,59.8209 76,59.6 V 52.4 C 76,52.1791 75.8209,52 75.6,52 H 72 V 40 h 3.6 c 0.2209,0 0.4,0.1791 0.4,0.4 v 7.2 c 0,0.2209 0.1791,0.4 0.4,0.4 h 7.2 c 0.2209,0 0.4,0.1791 0.4,0.4 v 7.2 c 0,0.2209 0.1791,0.4 0.4,0.4 h 3.2 C 87.8209,56 88,55.8209 88,55.6 V 52.4 C 88,52.1791 88.1791,52 88.4,52 h 3.2 C 91.8209,52 92,51.8209 92,51.6 V 48.4 C 92,48.1791 92.1791,48 92.4,48 h 3.2 c 0.2209,0 0.4,0.1791 0.4,0.4 v 7.2 c 0,0.2209 0.1791,0.4 0.4,0.4 h 3.2 c 0.2209,0 0.4,-0.1791 0.4,-0.4 v -3.2 c 0,-0.2209 0.179,-0.4 0.4,-0.4 h 3.6 v 3.6 c 0,0.2209 0.179,0.4 0.4,0.4 h 3.6 v 3.6 c 0,0.2209 -0.179,0.4 -0.4,0.4 h -3.2 c -0.221,0 -0.4,0.1791 -0.4,0.4 v 3.2 c 0,0.2209 -0.179,0.4 -0.4,0.4 z m 12,-4 h -3.2 C 112.179,60 112,59.8209 112,59.6 V 56.4 C 112,56.1791 111.821,56 111.6,56 H 108 v -4 h 3.6 c 0.221,0 0.4,-0.1791 0.4,-0.4 v -3.2 c 0,-0.2209 0.179,-0.4 0.4,-0.4 h 3.2 c 0.221,0 0.4,0.1791 0.4,0.4 v 11.2 c 0,0.2209 -0.179,0.4 -0.4,0.4 z m -92,0 H 20.4 C 20.1791,60 20,59.8209 20,59.6 V 56 h 4 v 3.6 c 0,0.2209 -0.1791,0.4 -0.4,0.4 z m 48,-4 H 68.4 C 68.1791,56 68,55.8209 68,55.6 V 52 h 4 v 3.6 c 0,0.2209 -0.1791,0.4 -0.4,0.4 z m -52,0 H 16.4 C 16.1791,56 16,55.8209 16,55.6 V 48.4 C 16,48.1791 16.1791,48 16.4,48 h 3.2 c 0.2209,0 0.4,0.1791 0.4,0.4 V 56 Z m 88,-4 H 104 v -3.6 c 0,-0.2209 0.179,-0.4 0.4,-0.4 h 3.2 c 0.221,0 0.4,0.1791 0.4,0.4 V 52 Z m -52,0 H 52 v -8 h 4 v 7.6 c 0,0.2209 -0.1791,0.4 -0.4,0.4 z m -8,0 H 40.4 C 40.1791,52 40,51.8209 40,51.6 V 48.4 C 40,48.1791 40.1791,48 40.4,48 h 7.2 c 0.2209,0 0.4,0.1791 0.4,0.4 V 52 Z m 68,-8 H 88.4 C 88.1791,44 88,43.8209 88,43.6 V 16.4 C 88,16.1791 88.1791,16 88.4,16 h 27.2 c 0.221,0 0.4,0.1791 0.4,0.4 v 27.2 c 0,0.2209 -0.179,0.4 -0.4,0.4 z m -32,0 H 80.4 C 80.1791,44 80,43.8209 80,43.6 V 36.4 C 80,36.1791 80.1791,36 80.4,36 h 3.2 c 0.2209,0 0.4,0.1791 0.4,0.4 v 7.2 c 0,0.2209 -0.1791,0.4 -0.4,0.4 z m -24,0 H 56 V 40.4 C 56,40.1791 55.8209,40 55.6,40 H 52.4 C 52.1791,40 52,40.1791 52,40.4 V 44 H 48.4 C 48.1791,44 48,43.8209 48,43.6 V 36.4 C 48,36.1791 48.1791,36 48.4,36 h 3.2 C 51.8209,36 52,35.8209 52,35.6 V 28 h 3.6 c 0.2209,0 0.4,0.1791 0.4,0.4 v 7.2 c 0,0.2209 0.1791,0.4 0.4,0.4 H 60 v 7.6 c 0,0.2209 -0.1791,0.4 -0.4,0.4 z m -16,0 H 16.4 C 16.1791,44 16,43.8209 16,43.6 V 16.4 C 16,16.1791 16.1791,16 16.4,16 h 27.2 c 0.2209,0 0.4,0.1791 0.4,0.4 V 43.6 C 44,43.8209 43.8209,44 43.6,44 Z M 112,39.6 V 20.4 C 112,20.1791 111.821,20 111.6,20 H 92.4 C 92.1791,20 92,20.1791 92,20.4 v 19.2 c 0,0.2209 0.1791,0.4 0.4,0.4 h 19.2 c 0.221,0 0.4,-0.1791 0.4,-0.4 z m -72,0 V 20.4 C 40,20.1791 39.8209,20 39.6,20 H 20.4 C 20.1791,20 20,20.1791 20,20.4 v 19.2 c 0,0.2209 0.1791,0.4 0.4,0.4 H 39.6 C 39.8209,40 40,39.8209 40,39.6 Z M 107.6,36 H 96.4 C 96.1791,36 96,35.8209 96,35.6 V 24.4 C 96,24.1791 96.1791,24 96.4,24 h 11.2 c 0.221,0 0.4,0.1791 0.4,0.4 v 11.2 c 0,0.2209 -0.179,0.4 -0.4,0.4 z m -32,0 H 72 V 32.4 C 72,32.1791 71.8209,32 71.6,32 H 68 V 28.4 C 68,28.1791 67.8209,28 67.6,28 H 64.4 C 64.1791,28 64,27.8209 64,27.6 V 24 h 8 v 3.6 c 0,0.2209 0.1791,0.4 0.4,0.4 H 76 v 7.6 c 0,0.2209 -0.1791,0.4 -0.4,0.4 z m -40,0 H 24.4 C 24.1791,36 24,35.8209 24,35.6 V 24.4 C 24,24.1791 24.1791,24 24.4,24 h 11.2 c 0.2209,0 0.4,0.1791 0.4,0.4 v 11.2 c 0,0.2209 -0.1791,0.4 -0.4,0.4 z m 48,-4 H 80.4 C 80.1791,32 80,31.8209 80,31.6 V 28 h 3.6 c 0.2209,0 0.4,0.1791 0.4,0.4 v 3.2 c 0,0.2209 -0.1791,0.4 -0.4,0.4 z m -4,-4 H 76 v -4 h 3.6 c 0.2209,0 0.4,0.1791 0.4,0.4 V 28 Z m -28,0 H 48.4 C 48.1791,28 48,27.8209 48,27.6 V 24.4 C 48,24.1791 48.1791,24 48.4,24 H 52 v 4 z m 24,-4 H 72 V 20.4 C 72,20.1791 71.8209,20 71.6,20 H 68.4 C 68.1791,20 68,19.8209 68,19.6 V 16.4 C 68,16.1791 68.1791,16 68.4,16 h 7.2 c 0.2209,0 0.4,0.1791 0.4,0.4 V 24 Z m -12,0 H 60.4 C 60.1791,24 60,23.8209 60,23.6 V 16.4 C 60,16.1791 60.1791,16 60.4,16 h 3.2 c 0.2209,0 0.4,0.1791 0.4,0.4 V 24 Z m -8,0 H 52 V 20.4 C 52,20.1791 51.8209,20 51.6,20 H 48.4 C 48.1791,20 48,19.8209 48,19.6 V 16.4 C 48,16.1791 48.1791,16 48.4,16 h 7.2 c 0.2209,0 0.4,0.1791 0.4,0.4 v 7.2 c 0,0.2209 -0.1791,0.4 -0.4,0.4 z"
             id="path4"
             style="fill:#ffffff;fill-opacity:1" />
        </g>
      </g>
    </g>
  </g>
  <g
     inkscape:groupmode="layer"
     inkscape:label="Printing Marks"
     id="printing-marks"
     sodipodi:insensitive="true">
    <g
       id="CropMarks"
       inkscape:label="CropMarks">
      <path
         style="fill:none;stroke:#000000;stroke-width:0.25"
         id="cropTL1"
         d="M 0.0,-3.0 L 0.0,-13.0" />
      <path
         style="fill:none;stroke:#000000;stroke-width:0.25"
         id="cropTL2"
         d="M -3.0,0.0 L -13.0,0.0" />
      <path
         style="fill:none;stroke:#000000;stroke-width:0.25"
         id="cropTR1"
         d="M 900.0,-3.0 L 900.0,-13.0" />
      <path
         style="fill:none;stroke:#000000;stroke-width:0.25"
         id="cropTR2"
         d="M 903.0,0.0 L 913.0,0.0" />
      <path
         style="fill:none;stroke:#000000;stroke-width:0.25"
         id="cropBL1"
         d="M 0.0,503.0 L 0.0,513.0" />
      <path
         style="fill:none;stroke:#000000;stroke-width:0.25"
         id="cropBL2"
         d="M -3.0,500.0 L -13.0,500.0" />
      <path
         style="fill:none;stroke:#000000;stroke-width:0.25"
         id="cropBR1"
         d="M 900.0,503.0 L 900.0,513.0" />
      <path
         style="fill:none;stroke:#000000;stroke-width:0.25"
         id="cropBR2"
         d="M 903.0,500.0 L 913.0,500.0" />
    </g>
  </g>
</svg>
